2021-05-11 22:21:56,422 - io.github.bonigarcia.wdm.WebDriverManager -INFO - Using chromedriver 90.0.4430.24 (resolved driver for Chrome 90)
2021-05-11 22:21:56,454 - io.github.bonigarcia.wdm.WebDriverManager -INFO - Exporting webdriver.chrome.driver as C:\Users\INNOTECH_61\.cache\selenium\chromedriver\win32\90.0.4430.24\chromedriver.exe
2021-05-11 22:23:55,008 - io.github.bonigarcia.wdm.WebDriverManager -INFO - Using chromedriver 90.0.4430.24 (resolved driver for Chrome 90)
2021-05-11 22:23:55,040 - io.github.bonigarcia.wdm.WebDriverManager -INFO - Exporting webdriver.chrome.driver as C:\Users\INNOTECH_61\.cache\selenium\chromedriver\win32\90.0.4430.24\chromedriver.exe
2021-05-11 22:36:41,628 - io.github.bonigarcia.wdm.WebDriverManager -INFO - Using chromedriver 90.0.4430.24 (resolved driver for Chrome 90)
2021-05-11 22:36:41,660 - io.github.bonigarcia.wdm.WebDriverManager -INFO - Exporting webdriver.chrome.driver as C:\Users\INNOTECH_61\.cache\selenium\chromedriver\win32\90.0.4430.24\chromedriver.exe
2021-05-11 22:40:46,094 - io.github.bonigarcia.wdm.WebDriverManager -INFO - Using chromedriver 90.0.4430.24 (resolved driver for Chrome 90)
2021-05-11 22:40:46,118 - io.github.bonigarcia.wdm.WebDriverManager -INFO - Exporting webdriver.chrome.driver as C:\Users\INNOTECH_61\.cache\selenium\chromedriver\win32\90.0.4430.24\chromedriver.exe
2021-05-11 22:43:06,692 - io.github.bonigarcia.wdm.WebDriverManager -INFO - Using chromedriver 90.0.4430.24 (resolved driver for Chrome 90)
2021-05-11 22:43:06,716 - io.github.bonigarcia.wdm.WebDriverManager -INFO - Exporting webdriver.chrome.driver as C:\Users\INNOTECH_61\.cache\selenium\chromedriver\win32\90.0.4430.24\chromedriver.exe
2021-05-11 22:47:56,452 - io.github.bonigarcia.wdm.WebDriverManager -INFO - Using chromedriver 90.0.4430.24 (resolved driver for Chrome 90)
2021-05-11 22:47:56,476 - io.github.bonigarcia.wdm.WebDriverManager -INFO - Exporting webdriver.chrome.driver as C:\Users\INNOTECH_61\.cache\selenium\chromedriver\win32\90.0.4430.24\chromedriver.exe
2021-05-11 22:48:39,182 - io.github.bonigarcia.wdm.WebDriverManager -INFO - Using chromedriver 90.0.4430.24 (resolved driver for Chrome 90)
2021-05-11 22:48:39,218 - io.github.bonigarcia.wdm.WebDriverManager -INFO - Exporting webdriver.chrome.driver as C:\Users\INNOTECH_61\.cache\selenium\chromedriver\win32\90.0.4430.24\chromedriver.exe
2021-05-11 22:51:36,300 - io.github.bonigarcia.wdm.WebDriverManager -INFO - Using chromedriver 90.0.4430.24 (resolved driver for Chrome 90)
2021-05-11 22:51:36,324 - io.github.bonigarcia.wdm.WebDriverManager -INFO - Exporting webdriver.chrome.driver as C:\Users\INNOTECH_61\.cache\selenium\chromedriver\win32\90.0.4430.24\chromedriver.exe
2021-05-11 22:59:18,541 - io.github.bonigarcia.wdm.WebDriverManager -INFO - Using chromedriver 90.0.4430.24 (resolved driver for Chrome 90)
2021-05-11 22:59:18,573 - io.github.bonigarcia.wdm.WebDriverManager -INFO - Exporting webdriver.chrome.driver as C:\Users\INNOTECH_61\.cache\selenium\chromedriver\win32\90.0.4430.24\chromedriver.exe
2021-05-11 22:59:52,818 - io.github.bonigarcia.wdm.WebDriverManager -INFO - Using chromedriver 90.0.4430.24 (resolved driver for Chrome 90)
2021-05-11 22:59:52,842 - io.github.bonigarcia.wdm.WebDriverManager -INFO - Exporting webdriver.chrome.driver as C:\Users\INNOTECH_61\.cache\selenium\chromedriver\win32\90.0.4430.24\chromedriver.exe
2021-05-11 23:07:18,132 - io.github.bonigarcia.wdm.WebDriverManager -INFO - Using chromedriver 90.0.4430.24 (resolved driver for Chrome 90)
2021-05-11 23:07:18,168 - io.github.bonigarcia.wdm.WebDriverManager -INFO - Exporting webdriver.chrome.driver as C:\Users\INNOTECH_61\.cache\selenium\chromedriver\win32\90.0.4430.24\chromedriver.exe
2021-05-11 23:07:52,224 - io.github.bonigarcia.wdm.WebDriverManager -INFO - Using chromedriver 90.0.4430.24 (resolved driver for Chrome 90)
2021-05-11 23:07:52,252 - io.github.bonigarcia.wdm.WebDriverManager -INFO - Exporting webdriver.chrome.driver as C:\Users\INNOTECH_61\.cache\selenium\chromedriver\win32\90.0.4430.24\chromedriver.exe
2021-05-11 23:08:54,331 - io.github.bonigarcia.wdm.WebDriverManager -INFO - Using chromedriver 90.0.4430.24 (resolved driver for Chrome 90)
2021-05-11 23:08:54,359 - io.github.bonigarcia.wdm.WebDriverManager -INFO - Exporting webdriver.chrome.driver as C:\Users\INNOTECH_61\.cache\selenium\chromedriver\win32\90.0.4430.24\chromedriver.exe
2021-05-11 23:11:07,857 - io.github.bonigarcia.wdm.WebDriverManager -INFO - Using chromedriver 90.0.4430.24 (resolved driver for Chrome 90)
2021-05-11 23:11:07,885 - io.github.bonigarcia.wdm.WebDriverManager -INFO - Exporting webdriver.chrome.driver as C:\Users\INNOTECH_61\.cache\selenium\chromedriver\win32\90.0.4430.24\chromedriver.exe
2021-05-13 20:25:03,358 - io.github.bonigarcia.wdm.WebDriverManager -INFO - Using chromedriver 90.0.4430.24 (resolved driver for Chrome 90)
2021-05-13 20:25:03,398 - io.github.bonigarcia.wdm.WebDriverManager -INFO - Exporting webdriver.chrome.driver as C:\Users\INNOTECH_61\.cache\selenium\chromedriver\win32\90.0.4430.24\chromedriver.exe
2021-05-13 21:03:51,977 - io.github.bonigarcia.wdm.WebDriverManager -INFO - Using chromedriver 90.0.4430.24 (resolved driver for Chrome 90)
2021-05-13 21:03:52,009 - io.github.bonigarcia.wdm.WebDriverManager -INFO - Exporting webdriver.chrome.driver as C:\Users\INNOTECH_61\.cache\selenium\chromedriver\win32\90.0.4430.24\chromedriver.exe
2021-05-13 21:03:54,230 - nopComemrce -INFO - ******** Opening URL*********
2021-05-13 21:03:58,445 - nopComemrce -INFO - ******** Providing login details*********
2021-05-13 21:03:58,853 - nopComemrce -INFO - ******** started login*********
2021-05-13 21:06:02,828 - io.github.bonigarcia.wdm.WebDriverManager -INFO - Using chromedriver 90.0.4430.24 (resolved driver for Chrome 90)
2021-05-13 21:06:02,852 - io.github.bonigarcia.wdm.WebDriverManager -INFO - Exporting webdriver.chrome.driver as C:\Users\INNOTECH_61\.cache\selenium\chromedriver\win32\90.0.4430.24\chromedriver.exe
2021-05-13 21:06:04,963 - nopComemrce -INFO - ******** Opening URL*********
2021-05-13 21:06:20,269 - nopComemrce -INFO - ******** Providing login details*********
2021-05-13 21:06:20,597 - nopComemrce -INFO - ******** started login*********
2021-05-13 21:30:43,763 - io.github.bonigarcia.wdm.WebDriverManager -INFO - Using chromedriver 90.0.4430.24 (resolved driver for Chrome 90)
2021-05-13 21:30:43,794 - io.github.bonigarcia.wdm.WebDriverManager -INFO - Exporting webdriver.chrome.driver as C:\Users\INNOTECH_61\.cache\selenium\chromedriver\win32\90.0.4430.24\chromedriver.exe
2021-05-13 21:30:45,914 - nopComemrce -INFO - ******** Opening URL*********
2021-05-13 21:30:48,530 - nopComemrce -INFO - ******** Providing login details*********
2021-05-13 21:30:48,959 - nopComemrce -INFO - ******** started login*********
2021-05-13 21:30:58,312 - nopComemrce -INFO - ******** Login Passed*********
2021-05-13 21:31:01,332 - nopComemrce -INFO - ******** Click on logout link*********
2021-05-13 21:31:06,125 - nopComemrce -INFO - ******** Login Passed*********
2021-05-13 21:31:09,149 - nopComemrce -INFO - ********closing browser********
2021-05-13 21:32:43,713 - io.github.bonigarcia.wdm.WebDriverManager -INFO - Using chromedriver 90.0.4430.24 (resolved driver for Chrome 90)
2021-05-13 21:32:43,744 - io.github.bonigarcia.wdm.WebDriverManager -INFO - Exporting webdriver.chrome.driver as C:\Users\INNOTECH_61\.cache\selenium\chromedriver\win32\90.0.4430.24\chromedriver.exe
2021-05-13 21:32:45,923 - nopComemrce -INFO - ******** Opening URL*********
2021-05-13 21:32:48,299 - nopComemrce -INFO - ******** Providing login details*********
2021-05-13 21:32:48,675 - nopComemrce -INFO - ******** started login*********
2021-05-13 21:33:04,136 - nopComemrce -INFO - ******** Login Passed*********
2021-05-13 21:33:07,137 - nopComemrce -INFO - ******** Click on logout link*********
2021-05-13 21:33:15,076 - nopComemrce -INFO - ******** Login Passed*********
2021-05-13 21:33:18,082 - nopComemrce -INFO - ********closing browser********
2021-05-13 21:49:08,128 - io.github.bonigarcia.wdm.WebDriverManager -INFO - Using chromedriver 90.0.4430.24 (resolved driver for Chrome 90)
2021-05-13 21:49:08,159 - io.github.bonigarcia.wdm.WebDriverManager -INFO - Exporting webdriver.chrome.driver as C:\Users\INNOTECH_61\.cache\selenium\chromedriver\win32\90.0.4430.24\chromedriver.exe
2021-05-13 21:49:10,234 - nopComemrce -INFO - ******** Opening URL*********
2021-05-13 21:53:06,528 - io.github.bonigarcia.wdm.WebDriverManager -INFO - Using chromedriver 90.0.4430.24 (resolved driver for Chrome 90)
2021-05-13 21:53:06,559 - io.github.bonigarcia.wdm.WebDriverManager -INFO - Exporting webdriver.chrome.driver as C:\Users\INNOTECH_61\.cache\selenium\chromedriver\win32\90.0.4430.24\chromedriver.exe
2021-05-13 21:53:08,686 - nopComemrce -INFO - ******** Opening URL*********
2021-05-13 21:53:10,689 - nopComemrce -INFO - ******** Providing login details*********
2021-05-13 21:53:11,068 - nopComemrce -INFO - ******** started login*********
2021-05-13 21:53:19,480 - nopComemrce -INFO - ******** Login Passed*********
2021-05-13 21:53:22,497 - nopComemrce -INFO - ******** Click on logout link*********
2021-05-13 21:53:27,488 - nopComemrce -INFO - ******** Login Passed*********
2021-05-13 21:53:30,503 - nopComemrce -INFO - ********closing browser********
2021-05-13 21:54:35,561 - io.github.bonigarcia.wdm.WebDriverManager -INFO - Using chromedriver 90.0.4430.24 (resolved driver for Chrome 90)
2021-05-13 21:54:35,608 - io.github.bonigarcia.wdm.WebDriverManager -INFO - Exporting webdriver.chrome.driver as C:\Users\INNOTECH_61\.cache\selenium\chromedriver\win32\90.0.4430.24\chromedriver.exe
2021-05-13 21:54:37,739 - nopComemrce -INFO - ******** Opening URL*********
2021-05-13 21:54:39,587 - nopComemrce -INFO - ******** Providing login details*********
2021-05-13 21:54:39,936 - nopComemrce -INFO - ******** started login*********
2021-05-13 21:54:47,082 - nopComemrce -INFO - ******** Login Passed*********
2021-05-13 21:54:50,102 - nopComemrce -INFO - ******** Click on logout link*********
2021-05-13 21:54:54,586 - nopComemrce -INFO - ******** Login Passed*********
2021-05-13 21:54:57,598 - nopComemrce -INFO - ********closing browser********
2021-05-13 21:54:58,559 - io.github.bonigarcia.wdm.WebDriverManager -INFO - Using chromedriver 90.0.4430.24 (resolved driver for Chrome 90)
2021-05-13 21:54:58,575 - io.github.bonigarcia.wdm.WebDriverManager -INFO - Exporting webdriver.chrome.driver as C:\Users\INNOTECH_61\.cache\selenium\chromedriver\win32\90.0.4430.24\chromedriver.exe
2021-05-13 21:55:00,089 - nopComemrce -INFO - ******** Opening URL*********
2021-05-13 21:55:01,683 - nopComemrce -INFO - ******** Providing login details*********
2021-05-13 21:55:02,156 - nopComemrce -INFO - ******** started login*********
2021-05-13 21:55:09,339 - nopComemrce -INFO - ******** Login Passed*********
2021-05-13 21:55:12,363 - nopComemrce -INFO - ******** Click on logout link*********
2021-05-13 21:55:17,227 - nopComemrce -INFO - ******** Login Passed*********
2021-05-13 21:55:20,239 - nopComemrce -INFO - ********closing browser********
2021-05-15 10:21:49,958 - io.github.bonigarcia.wdm.WebDriverManager -INFO - Using chromedriver 90.0.4430.24 (resolved driver for Chrome 90)
2021-05-15 10:21:49,989 - io.github.bonigarcia.wdm.WebDriverManager -INFO - Exporting webdriver.chrome.driver as C:\Users\INNOTECH_61\.cache\selenium\chromedriver\win32\90.0.4430.24\chromedriver.exe
2021-05-15 10:21:55,261 - nopComemrce -INFO - ******** Providing login details*********
2021-05-15 10:21:55,694 - nopComemrce -INFO - ******** started login*********
2021-05-15 10:22:08,917 - nopComemrce -INFO - ******** Click on logout link*********
2021-05-15 10:22:14,200 - nopComemrce -INFO - ******** Login Failed*********
2021-05-15 10:25:02,524 - io.github.bonigarcia.wdm.WebDriverManager -INFO - Using chromedriver 90.0.4430.24 (resolved driver for Chrome 90)
2021-05-15 10:25:02,555 - io.github.bonigarcia.wdm.WebDriverManager -INFO - Exporting webdriver.chrome.driver as C:\Users\INNOTECH_61\.cache\selenium\chromedriver\win32\90.0.4430.24\chromedriver.exe
2021-05-15 10:25:06,785 - nopComemrce -INFO - ******** Providing login details*********
2021-05-15 10:25:07,157 - nopComemrce -INFO - ******** started login*********
2021-05-15 10:25:16,174 - nopComemrce -INFO - ******** Login Passed*********
2021-05-15 10:25:16,190 - nopComemrce -INFO - ******** Click on logout link*********
2021-05-15 10:25:20,700 - nopComemrce -INFO - ******** Login Failed*********
2021-05-15 10:26:04,482 - io.github.bonigarcia.wdm.WebDriverManager -INFO - Using chromedriver 90.0.4430.24 (resolved driver for Chrome 90)
2021-05-15 10:26:04,513 - io.github.bonigarcia.wdm.WebDriverManager -INFO - Exporting webdriver.chrome.driver as C:\Users\INNOTECH_61\.cache\selenium\chromedriver\win32\90.0.4430.24\chromedriver.exe
2021-05-15 10:26:08,471 - nopComemrce -INFO - ******** Providing login details*********
2021-05-15 10:26:08,846 - nopComemrce -INFO - ******** started login*********
2021-05-15 10:28:35,311 - nopComemrce -INFO - ******** Login Passed*********
2021-05-15 10:28:38,970 - nopComemrce -INFO - ******** Click on logout link*********
2021-05-15 10:29:37,115 - nopComemrce -INFO - ******** Login Failed*********
2021-05-15 10:34:32,494 - io.github.bonigarcia.wdm.WebDriverManager -INFO - Using chromedriver 90.0.4430.24 (resolved driver for Chrome 90)
2021-05-15 10:34:32,527 - io.github.bonigarcia.wdm.WebDriverManager -INFO - Exporting webdriver.chrome.driver as C:\Users\INNOTECH_61\.cache\selenium\chromedriver\win32\90.0.4430.24\chromedriver.exe
2021-05-15 10:34:38,446 - nopComemrce -INFO - ******** Providing login details*********
2021-05-15 10:34:38,831 - nopComemrce -INFO - ******** started login*********
2021-05-15 10:34:54,903 - nopComemrce -INFO - ******** Login Failed*********
2021-05-15 10:35:29,253 - io.github.bonigarcia.wdm.WebDriverManager -INFO - Using chromedriver 90.0.4430.24 (resolved driver for Chrome 90)
2021-05-15 10:35:29,289 - io.github.bonigarcia.wdm.WebDriverManager -INFO - Exporting webdriver.chrome.driver as C:\Users\INNOTECH_61\.cache\selenium\chromedriver\win32\90.0.4430.24\chromedriver.exe
2021-05-15 10:35:34,274 - nopComemrce -INFO - ******** Providing login details*********
2021-05-15 10:35:34,636 - nopComemrce -INFO - ******** started login*********
2021-05-15 10:36:46,526 - io.github.bonigarcia.wdm.WebDriverManager -INFO - Using chromedriver 90.0.4430.24 (resolved driver for Chrome 90)
2021-05-15 10:36:46,555 - io.github.bonigarcia.wdm.WebDriverManager -INFO - Exporting webdriver.chrome.driver as C:\Users\INNOTECH_61\.cache\selenium\chromedriver\win32\90.0.4430.24\chromedriver.exe
2021-05-15 10:36:50,357 - nopComemrce -INFO - ******** Providing login details*********
2021-05-15 10:36:50,732 - nopComemrce -INFO - ******** started login*********
2021-05-15 10:37:01,768 - nopComemrce -INFO - ******** Login Passed*********
2021-05-15 10:37:01,768 - nopComemrce -INFO - ******** Click on logout link*********
2021-05-15 10:37:06,287 - nopComemrce -INFO - ******** Login Failed*********
2021-05-15 10:37:23,296 - io.github.bonigarcia.wdm.WebDriverManager -INFO - Using chromedriver 90.0.4430.24 (resolved driver for Chrome 90)
2021-05-15 10:37:23,343 - io.github.bonigarcia.wdm.WebDriverManager -INFO - Exporting webdriver.chrome.driver as C:\Users\INNOTECH_61\.cache\selenium\chromedriver\win32\90.0.4430.24\chromedriver.exe
2021-05-15 10:37:27,314 - nopComemrce -INFO - ******** Providing login details*********
2021-05-15 10:37:27,720 - nopComemrce -INFO - ******** started login*********
2021-05-15 10:38:38,468 - nopComemrce -INFO - ******** Login Passed*********
2021-05-15 10:38:50,234 - nopComemrce -INFO - ******** Click on logout link*********
2021-05-15 10:40:19,400 - io.github.bonigarcia.wdm.WebDriverManager -INFO - Using chromedriver 90.0.4430.24 (resolved driver for Chrome 90)
2021-05-15 10:40:19,431 - io.github.bonigarcia.wdm.WebDriverManager -INFO - Exporting webdriver.chrome.driver as C:\Users\INNOTECH_61\.cache\selenium\chromedriver\win32\90.0.4430.24\chromedriver.exe
2021-05-15 10:40:24,268 - nopComemrce -INFO - ******** Providing login details*********
2021-05-15 10:40:24,824 - nopComemrce -INFO - ******** started login*********
2021-05-15 10:41:50,608 - io.github.bonigarcia.wdm.WebDriverManager -INFO - Using chromedriver 90.0.4430.24 (resolved driver for Chrome 90)
2021-05-15 10:41:50,644 - io.github.bonigarcia.wdm.WebDriverManager -INFO - Exporting webdriver.chrome.driver as C:\Users\INNOTECH_61\.cache\selenium\chromedriver\win32\90.0.4430.24\chromedriver.exe
2021-05-15 10:41:57,068 - nopComemrce -INFO - ******** Providing login details*********
2021-05-15 10:41:57,468 - nopComemrce -INFO - ******** started login*********
2021-05-15 10:42:20,863 - nopComemrce -INFO - ******** Login Passed*********
2021-05-15 10:42:20,864 - nopComemrce -INFO - ******** Click on logout link*********
2021-05-15 10:42:27,411 - nopComemrce -INFO - ******** Login Passed*********
2021-05-15 10:42:27,414 - nopComemrce -INFO - ********closing browser********
2021-05-17 20:41:11,090 - io.github.bonigarcia.wdm.WebDriverManager -INFO - Using chromedriver 90.0.4430.24 (resolved driver for Chrome 90)
2021-05-17 20:41:11,125 - io.github.bonigarcia.wdm.WebDriverManager -INFO - Exporting webdriver.chrome.driver as C:\Users\INNOTECH_61\.cache\selenium\chromedriver\win32\90.0.4430.24\chromedriver.exe
2021-05-17 20:41:20,290 - nopComemrce -INFO - ******** Providing login details*********
2021-05-17 20:41:20,715 - nopComemrce -INFO - ******** started login*********
2021-05-17 20:53:41,403 - io.github.bonigarcia.wdm.WebDriverManager -INFO - Using chromedriver 90.0.4430.24 (resolved driver for Chrome 90)
2021-05-17 20:53:41,438 - io.github.bonigarcia.wdm.WebDriverManager -INFO - Exporting webdriver.chrome.driver as C:\Users\INNOTECH_61\.cache\selenium\chromedriver\win32\90.0.4430.24\chromedriver.exe
2021-05-17 20:53:47,608 - nopComemrce -INFO - ******** Providing login details*********
2021-05-17 20:53:47,968 - nopComemrce -INFO - ******** started login*********
2021-05-17 20:55:54,347 - io.github.bonigarcia.wdm.WebDriverManager -INFO - Using chromedriver 90.0.4430.24 (resolved driver for Chrome 90)
2021-05-17 20:55:54,397 - io.github.bonigarcia.wdm.WebDriverManager -INFO - Exporting webdriver.chrome.driver as C:\Users\INNOTECH_61\.cache\selenium\chromedriver\win32\90.0.4430.24\chromedriver.exe
2021-05-17 20:56:01,262 - nopComemrce -INFO - ******** Providing login details*********
2021-05-17 20:56:01,642 - nopComemrce -INFO - ******** started login*********
2021-05-17 21:03:19,830 - io.github.bonigarcia.wdm.WebDriverManager -INFO - Using chromedriver 90.0.4430.24 (resolved driver for Chrome 90)
2021-05-17 21:03:19,861 - io.github.bonigarcia.wdm.WebDriverManager -INFO - Exporting webdriver.chrome.driver as C:\Users\INNOTECH_61\.cache\selenium\chromedriver\win32\90.0.4430.24\chromedriver.exe
2021-05-17 21:03:33,121 - nopComemrce -INFO - ******** Providing login details*********
2021-05-17 21:03:33,481 - nopComemrce -INFO - ******** started login*********
2021-05-17 21:04:40,968 - io.github.bonigarcia.wdm.WebDriverManager -INFO - Using chromedriver 90.0.4430.24 (resolved driver for Chrome 90)
2021-05-17 21:04:40,999 - io.github.bonigarcia.wdm.WebDriverManager -INFO - Exporting webdriver.chrome.driver as C:\Users\INNOTECH_61\.cache\selenium\chromedriver\win32\90.0.4430.24\chromedriver.exe
2021-05-17 21:05:16,639 - nopComemrce -INFO - ******** Providing login details*********
2021-05-17 21:05:16,988 - nopComemrce -INFO - ******** started login*********
2021-05-17 21:06:17,454 - io.github.bonigarcia.wdm.WebDriverManager -INFO - Using chromedriver 90.0.4430.24 (resolved driver for Chrome 90)
2021-05-17 21:06:17,486 - io.github.bonigarcia.wdm.WebDriverManager -INFO - Exporting webdriver.chrome.driver as C:\Users\INNOTECH_61\.cache\selenium\chromedriver\win32\90.0.4430.24\chromedriver.exe
2021-05-17 21:06:24,596 - nopComemrce -INFO - ******** Providing login details*********
2021-05-17 21:06:24,965 - nopComemrce -INFO - ******** started login*********
2021-05-17 21:08:34,549 - io.github.bonigarcia.wdm.WebDriverManager -INFO - Using chromedriver 90.0.4430.24 (resolved driver for Chrome 90)
2021-05-17 21:08:34,584 - io.github.bonigarcia.wdm.WebDriverManager -INFO - Exporting webdriver.chrome.driver as C:\Users\INNOTECH_61\.cache\selenium\chromedriver\win32\90.0.4430.24\chromedriver.exe
2021-05-17 21:12:59,336 - io.github.bonigarcia.wdm.WebDriverManager -INFO - Using chromedriver 90.0.4430.24 (resolved driver for Chrome 90)
2021-05-17 21:12:59,360 - io.github.bonigarcia.wdm.WebDriverManager -INFO - Exporting webdriver.chrome.driver as C:\Users\INNOTECH_61\.cache\selenium\chromedriver\win32\90.0.4430.24\chromedriver.exe
2021-05-17 21:13:07,585 - nopComemrce -INFO - ******** Providing login details*********
2021-05-17 21:13:07,966 - nopComemrce -INFO - ******** started login*********
2021-05-17 21:14:47,795 - io.github.bonigarcia.wdm.WebDriverManager -INFO - Using chromedriver 90.0.4430.24 (resolved driver for Chrome 90)
2021-05-17 21:14:47,843 - io.github.bonigarcia.wdm.WebDriverManager -INFO - Exporting webdriver.chrome.driver as C:\Users\INNOTECH_61\.cache\selenium\chromedriver\win32\90.0.4430.24\chromedriver.exe
2021-05-17 21:15:19,963 - nopComemrce -INFO - ******** Providing login details*********
2021-05-17 21:15:20,267 - nopComemrce -INFO - ******** started login*********
2021-05-17 21:16:28,694 - io.github.bonigarcia.wdm.WebDriverManager -INFO - Using chromedriver 90.0.4430.24 (resolved driver for Chrome 90)
2021-05-17 21:16:28,794 - io.github.bonigarcia.wdm.WebDriverManager -INFO - Exporting webdriver.chrome.driver as C:\Users\INNOTECH_61\.cache\selenium\chromedriver\win32\90.0.4430.24\chromedriver.exe
2021-05-17 21:17:49,073 - io.github.bonigarcia.wdm.WebDriverManager -INFO - Using chromedriver 90.0.4430.24 (resolved driver for Chrome 90)
2021-05-17 21:17:49,105 - io.github.bonigarcia.wdm.WebDriverManager -INFO - Exporting webdriver.chrome.driver as C:\Users\INNOTECH_61\.cache\selenium\chromedriver\win32\90.0.4430.24\chromedriver.exe
2021-05-17 21:17:59,273 - nopComemrce -INFO - ******** Providing login details*********
2021-05-17 21:17:59,641 - nopComemrce -INFO - ******** started login*********
2021-05-17 21:22:21,562 - io.github.bonigarcia.wdm.WebDriverManager -INFO - Using chromedriver 90.0.4430.24 (resolved driver for Chrome 90)
2021-05-17 21:22:21,586 - io.github.bonigarcia.wdm.WebDriverManager -INFO - Exporting webdriver.chrome.driver as C:\Users\INNOTECH_61\.cache\selenium\chromedriver\win32\90.0.4430.24\chromedriver.exe
2021-05-17 21:22:57,794 - nopComemrce -INFO - ******** Providing login details*********
2021-05-17 21:22:58,034 - nopComemrce -INFO - ******** started login*********
2021-05-17 21:23:42,014 - io.github.bonigarcia.wdm.WebDriverManager -INFO - Using chromedriver 90.0.4430.24 (resolved driver for Chrome 90)
2021-05-17 21:23:42,038 - io.github.bonigarcia.wdm.WebDriverManager -INFO - Exporting webdriver.chrome.driver as C:\Users\INNOTECH_61\.cache\selenium\chromedriver\win32\90.0.4430.24\chromedriver.exe
2021-05-17 21:24:19,170 - io.github.bonigarcia.wdm.WebDriverManager -INFO - Using chromedriver 90.0.4430.24 (resolved driver for Chrome 90)
2021-05-17 21:24:19,202 - io.github.bonigarcia.wdm.WebDriverManager -INFO - Exporting webdriver.chrome.driver as C:\Users\INNOTECH_61\.cache\selenium\chromedriver\win32\90.0.4430.24\chromedriver.exe
2021-05-17 21:24:26,912 - nopComemrce -INFO - ******** Providing login details*********
2021-05-17 21:24:27,230 - nopComemrce -INFO - ******** started login*********
2021-05-17 21:24:47,233 - nopComemrce -INFO - ********Adding new customer*********
2021-05-17 21:24:47,233 - nopComemrce -INFO - ********Proving customer details*********
2021-05-17 21:24:55,715 - nopComemrce -INFO - ********closing browser********
2021-05-17 21:39:00,349 - io.github.bonigarcia.wdm.WebDriverManager -INFO - Using chromedriver 90.0.4430.24 (resolved driver for Chrome 90)
2021-05-17 21:39:00,373 - io.github.bonigarcia.wdm.WebDriverManager -INFO - Exporting webdriver.chrome.driver as C:\Users\INNOTECH_61\.cache\selenium\chromedriver\win32\90.0.4430.24\chromedriver.exe
2021-05-17 21:39:36,594 - nopComemrce -INFO - ******** Providing login details*********
2021-05-17 21:39:36,923 - nopComemrce -INFO - ******** started login*********
2021-05-19 11:14:19,681 - io.github.bonigarcia.wdm.WebDriverManager -INFO - Using chromedriver 90.0.4430.24 (resolved driver for Chrome 90)
2021-05-19 11:14:19,712 - io.github.bonigarcia.wdm.WebDriverManager -INFO - Exporting webdriver.chrome.driver as C:\Users\INNOTECH_61\.cache\selenium\chromedriver\win32\90.0.4430.24\chromedriver.exe
2021-05-19 11:14:24,260 - nopComemrce -INFO - ******** Providing login details*********
2021-05-19 11:14:24,618 - nopComemrce -INFO - ******** started login*********
2021-05-19 11:16:40,846 - io.github.bonigarcia.wdm.WebDriverManager -INFO - Using chromedriver 90.0.4430.24 (resolved driver for Chrome 90)
2021-05-19 11:16:40,893 - io.github.bonigarcia.wdm.WebDriverManager -INFO - Exporting webdriver.chrome.driver as C:\Users\INNOTECH_61\.cache\selenium\chromedriver\win32\90.0.4430.24\chromedriver.exe
2021-05-19 11:16:45,742 - nopComemrce -INFO - ******** Providing login details*********
2021-05-19 11:16:46,169 - nopComemrce -INFO - ******** started login*********
2021-05-19 11:18:06,367 - io.github.bonigarcia.wdm.WebDriverManager -INFO - Using chromedriver 90.0.4430.24 (resolved driver for Chrome 90)
2021-05-19 11:18:06,416 - io.github.bonigarcia.wdm.WebDriverManager -INFO - Exporting webdriver.chrome.driver as C:\Users\INNOTECH_61\.cache\selenium\chromedriver\win32\90.0.4430.24\chromedriver.exe
2021-05-19 11:18:11,713 - nopComemrce -INFO - ******** Providing login details*********
2021-05-19 11:18:12,110 - nopComemrce -INFO - ******** started login*********
2021-05-19 11:20:28,187 - io.github.bonigarcia.wdm.WebDriverManager -INFO - Using chromedriver 90.0.4430.24 (resolved driver for Chrome 90)
2021-05-19 11:20:28,223 - io.github.bonigarcia.wdm.WebDriverManager -INFO - Exporting webdriver.chrome.driver as C:\Users\INNOTECH_61\.cache\selenium\chromedriver\win32\90.0.4430.24\chromedriver.exe
2021-05-19 11:20:33,157 - nopComemrce -INFO - ******** Providing login details*********
2021-05-19 11:20:33,485 - nopComemrce -INFO - ******** started login*********
2021-05-19 11:21:02,409 - io.github.bonigarcia.wdm.WebDriverManager -INFO - Using chromedriver 90.0.4430.24 (resolved driver for Chrome 90)
2021-05-19 11:21:02,453 - io.github.bonigarcia.wdm.WebDriverManager -INFO - Exporting webdriver.chrome.driver as C:\Users\INNOTECH_61\.cache\selenium\chromedriver\win32\90.0.4430.24\chromedriver.exe
2021-05-19 11:21:06,926 - nopComemrce -INFO - ******** Providing login details*********
2021-05-19 11:21:07,286 - nopComemrce -INFO - ******** started login*********
2021-05-19 11:23:47,337 - io.github.bonigarcia.wdm.WebDriverManager -INFO - Using chromedriver 90.0.4430.24 (resolved driver for Chrome 90)
2021-05-19 11:23:47,382 - io.github.bonigarcia.wdm.WebDriverManager -INFO - Exporting webdriver.chrome.driver as C:\Users\INNOTECH_61\.cache\selenium\chromedriver\win32\90.0.4430.24\chromedriver.exe
2021-05-19 11:23:51,794 - nopComemrce -INFO - ******** Providing login details*********
2021-05-19 11:23:52,163 - nopComemrce -INFO - ******** started login*********
2021-05-19 13:05:23,343 - io.github.bonigarcia.wdm.WebDriverManager -INFO - Using chromedriver 90.0.4430.24 (resolved driver for Chrome 90)
2021-05-19 13:05:23,385 - io.github.bonigarcia.wdm.WebDriverManager -INFO - Exporting webdriver.chrome.driver as C:\Users\INNOTECH_61\.cache\selenium\chromedriver\win32\90.0.4430.24\chromedriver.exe
2021-05-19 13:05:28,439 - nopComemrce -INFO - ******** Providing login details*********
2021-05-19 13:05:28,916 - nopComemrce -INFO - ******** started login*********
2021-05-19 13:09:23,604 - io.github.bonigarcia.wdm.WebDriverManager -INFO - Using chromedriver 90.0.4430.24 (resolved driver for Chrome 90)
2021-05-19 13:09:23,643 - io.github.bonigarcia.wdm.WebDriverManager -INFO - Exporting webdriver.chrome.driver as C:\Users\INNOTECH_61\.cache\selenium\chromedriver\win32\90.0.4430.24\chromedriver.exe
2021-05-19 13:09:28,181 - nopComemrce -INFO - ******** Providing login details*********
2021-05-19 13:09:28,585 - nopComemrce -INFO - ******** started login*********
2021-05-19 13:13:08,969 - io.github.bonigarcia.wdm.WebDriverManager -INFO - Using chromedriver 90.0.4430.24 (resolved driver for Chrome 90)
2021-05-19 13:13:09,009 - io.github.bonigarcia.wdm.WebDriverManager -INFO - Exporting webdriver.chrome.driver as C:\Users\INNOTECH_61\.cache\selenium\chromedriver\win32\90.0.4430.24\chromedriver.exe
2021-05-19 13:13:13,714 - nopComemrce -INFO - ******** Providing login details*********
2021-05-19 13:13:14,088 - nopComemrce -INFO - ******** started login*********
2021-05-19 13:14:36,323 - io.github.bonigarcia.wdm.WebDriverManager -INFO - Using chromedriver 90.0.4430.24 (resolved driver for Chrome 90)
2021-05-19 13:14:36,361 - io.github.bonigarcia.wdm.WebDriverManager -INFO - Exporting webdriver.chrome.driver as C:\Users\INNOTECH_61\.cache\selenium\chromedriver\win32\90.0.4430.24\chromedriver.exe
2021-05-19 13:14:42,897 - nopComemrce -INFO - ******** Providing login details*********
2021-05-19 13:14:43,268 - nopComemrce -INFO - ******** started login*********
2021-05-19 13:20:46,469 - io.github.bonigarcia.wdm.WebDriverManager -INFO - Using chromedriver 90.0.4430.24 (resolved driver for Chrome 90)
2021-05-19 13:20:46,508 - io.github.bonigarcia.wdm.WebDriverManager -INFO - Exporting webdriver.chrome.driver as C:\Users\INNOTECH_61\.cache\selenium\chromedriver\win32\90.0.4430.24\chromedriver.exe
2021-05-19 13:20:51,405 - nopComemrce -INFO - ******** Providing login details*********
2021-05-19 13:20:52,140 - nopComemrce -INFO - ******** started login*********
2021-05-19 13:25:07,646 - io.github.bonigarcia.wdm.WebDriverManager -INFO - Using chromedriver 90.0.4430.24 (resolved driver for Chrome 90)
2021-05-19 13:25:07,691 - io.github.bonigarcia.wdm.WebDriverManager -INFO - Exporting webdriver.chrome.driver as C:\Users\INNOTECH_61\.cache\selenium\chromedriver\win32\90.0.4430.24\chromedriver.exe
2021-05-19 13:25:12,400 - nopComemrce -INFO - ******** Providing login details*********
2021-05-19 13:25:12,759 - nopComemrce -INFO - ******** started login*********
2021-05-19 13:26:09,479 - nopComemrce -INFO - ********closing browser********
2021-05-19 13:32:58,740 - io.github.bonigarcia.wdm.WebDriverManager -INFO - Using chromedriver 90.0.4430.24 (resolved driver for Chrome 90)
2021-05-19 13:32:58,770 - io.github.bonigarcia.wdm.WebDriverManager -INFO - Exporting webdriver.chrome.driver as C:\Users\INNOTECH_61\.cache\selenium\chromedriver\win32\90.0.4430.24\chromedriver.exe
2021-05-19 13:33:04,004 - nopComemrce -INFO - ******** Providing login details*********
2021-05-19 13:33:04,362 - nopComemrce -INFO - ******** started login*********
2021-05-19 13:33:41,244 - io.github.bonigarcia.wdm.WebDriverManager -INFO - Using chromedriver 90.0.4430.24 (resolved driver for Chrome 90)
2021-05-19 13:33:41,284 - io.github.bonigarcia.wdm.WebDriverManager -INFO - Exporting webdriver.chrome.driver as C:\Users\INNOTECH_61\.cache\selenium\chromedriver\win32\90.0.4430.24\chromedriver.exe
2021-05-19 13:33:47,450 - nopComemrce -INFO - ******** Providing login details*********
2021-05-19 13:33:47,782 - nopComemrce -INFO - ******** started login*********
2021-05-19 13:34:31,593 - nopComemrce -INFO - ********closing browser********
2021-05-19 13:34:40,521 - io.github.bonigarcia.wdm.WebDriverManager -INFO - Using chromedriver 90.0.4430.24 (resolved driver for Chrome 90)
2021-05-19 13:34:40,548 - io.github.bonigarcia.wdm.WebDriverManager -INFO - Exporting webdriver.chrome.driver as C:\Users\INNOTECH_61\.cache\selenium\chromedriver\win32\90.0.4430.24\chromedriver.exe
2021-05-19 13:34:44,894 - nopComemrce -INFO - ******** Providing login details*********
2021-05-19 13:34:45,236 - nopComemrce -INFO - ******** started login*********
2021-05-19 13:35:22,073 - io.github.bonigarcia.wdm.WebDriverManager -INFO - Using chromedriver 90.0.4430.24 (resolved driver for Chrome 90)
2021-05-19 13:35:22,123 - io.github.bonigarcia.wdm.WebDriverManager -INFO - Exporting webdriver.chrome.driver as C:\Users\INNOTECH_61\.cache\selenium\chromedriver\win32\90.0.4430.24\chromedriver.exe
2021-05-19 13:35:26,985 - nopComemrce -INFO - ******** Providing login details*********
2021-05-19 13:35:27,359 - nopComemrce -INFO - ******** started login*********
2021-05-19 13:36:13,335 - io.github.bonigarcia.wdm.WebDriverManager -INFO - Using chromedriver 90.0.4430.24 (resolved driver for Chrome 90)
2021-05-19 13:36:13,387 - io.github.bonigarcia.wdm.WebDriverManager -INFO - Exporting webdriver.chrome.driver as C:\Users\INNOTECH_61\.cache\selenium\chromedriver\win32\90.0.4430.24\chromedriver.exe
2021-05-19 13:36:18,257 - nopComemrce -INFO - ******** Providing login details*********
2021-05-19 13:36:18,665 - nopComemrce -INFO - ******** started login*********
2021-05-19 13:37:57,414 - nopComemrce -INFO - ********closing browser********
2021-05-19 13:43:16,993 - io.github.bonigarcia.wdm.WebDriverManager -INFO - Using chromedriver 90.0.4430.24 (resolved driver for Chrome 90)
2021-05-19 13:43:17,021 - io.github.bonigarcia.wdm.WebDriverManager -INFO - Exporting webdriver.chrome.driver as C:\Users\INNOTECH_61\.cache\selenium\chromedriver\win32\90.0.4430.24\chromedriver.exe
2021-05-19 13:43:21,834 - nopComemrce -INFO - ******** Providing login details*********
2021-05-19 13:43:22,172 - nopComemrce -INFO - ******** started login*********
2021-05-19 13:47:30,315 - io.github.bonigarcia.wdm.WebDriverManager -INFO - Using chromedriver 90.0.4430.24 (resolved driver for Chrome 90)
2021-05-19 13:47:30,346 - io.github.bonigarcia.wdm.WebDriverManager -INFO - Exporting webdriver.chrome.driver as C:\Users\INNOTECH_61\.cache\selenium\chromedriver\win32\90.0.4430.24\chromedriver.exe
2021-05-19 13:48:06,268 - nopComemrce -INFO - ******** Providing login details*********
2021-05-19 13:48:06,616 - nopComemrce -INFO - ******** started login*********
2021-05-19 13:48:20,200 - io.github.bonigarcia.wdm.WebDriverManager -INFO - Using chromedriver 90.0.4430.24 (resolved driver for Chrome 90)
2021-05-19 13:48:20,235 - io.github.bonigarcia.wdm.WebDriverManager -INFO - Exporting webdriver.chrome.driver as C:\Users\INNOTECH_61\.cache\selenium\chromedriver\win32\90.0.4430.24\chromedriver.exe
2021-05-19 13:48:24,778 - nopComemrce -INFO - ******** Providing login details*********
2021-05-19 13:48:25,165 - nopComemrce -INFO - ******** started login*********
2021-05-19 13:48:36,705 - nopComemrce -INFO - ********closing browser********
2021-05-19 13:49:17,139 - io.github.bonigarcia.wdm.WebDriverManager -INFO - Using chromedriver 90.0.4430.24 (resolved driver for Chrome 90)
2021-05-19 13:49:17,168 - io.github.bonigarcia.wdm.WebDriverManager -INFO - Exporting webdriver.chrome.driver as C:\Users\INNOTECH_61\.cache\selenium\chromedriver\win32\90.0.4430.24\chromedriver.exe
2021-05-19 13:49:21,718 - nopComemrce -INFO - ******** Providing login details*********
2021-05-19 13:49:22,107 - nopComemrce -INFO - ******** started login*********
2021-05-19 13:49:33,811 - nopComemrce -INFO - ********closing browser********
2021-05-19 13:50:44,911 - io.github.bonigarcia.wdm.WebDriverManager -INFO - Using chromedriver 90.0.4430.24 (resolved driver for Chrome 90)
2021-05-19 13:50:44,957 - io.github.bonigarcia.wdm.WebDriverManager -INFO - Exporting webdriver.chrome.driver as C:\Users\INNOTECH_61\.cache\selenium\chromedriver\win32\90.0.4430.24\chromedriver.exe
2021-05-19 13:50:49,824 - nopComemrce -INFO - ******** Providing login details*********
2021-05-19 13:50:50,286 - nopComemrce -INFO - ******** started login*********
2021-05-19 13:51:27,559 - nopComemrce -INFO - ********closing browser********
2021-05-19 13:51:36,489 - io.github.bonigarcia.wdm.WebDriverManager -INFO - Using chromedriver 90.0.4430.24 (resolved driver for Chrome 90)
2021-05-19 13:51:36,517 - io.github.bonigarcia.wdm.WebDriverManager -INFO - Exporting webdriver.chrome.driver as C:\Users\INNOTECH_61\.cache\selenium\chromedriver\win32\90.0.4430.24\chromedriver.exe
2021-05-19 13:51:41,321 - nopComemrce -INFO - ******** Providing login details*********
2021-05-19 13:51:41,705 - nopComemrce -INFO - ******** started login*********
2021-05-19 13:51:56,172 - nopComemrce -INFO - ********closing browser********
2021-05-19 13:55:34,419 - io.github.bonigarcia.wdm.WebDriverManager -INFO - Using chromedriver 90.0.4430.24 (resolved driver for Chrome 90)
2021-05-19 13:55:34,446 - io.github.bonigarcia.wdm.WebDriverManager -INFO - Exporting webdriver.chrome.driver as C:\Users\INNOTECH_61\.cache\selenium\chromedriver\win32\90.0.4430.24\chromedriver.exe
2021-05-19 13:55:38,938 - nopComemrce -INFO - ******** Providing login details*********
2021-05-19 13:55:39,352 - nopComemrce -INFO - ******** started login*********
2021-05-19 13:55:52,250 - nopComemrce -INFO - ********closing browser********
2021-05-19 14:08:35,470 - io.github.bonigarcia.wdm.WebDriverManager -INFO - Using chromedriver 90.0.4430.24 (resolved driver for Chrome 90)
2021-05-19 14:08:35,498 - io.github.bonigarcia.wdm.WebDriverManager -INFO - Exporting webdriver.chrome.driver as C:\Users\INNOTECH_61\.cache\selenium\chromedriver\win32\90.0.4430.24\chromedriver.exe
2021-05-19 14:08:41,452 - nopComemrce -INFO - ******** Providing login details*********
2021-05-19 14:08:41,834 - nopComemrce -INFO - ******** started login*********
2021-05-19 14:08:52,416 - nopComemrce -INFO - ********closing browser********
2021-05-19 14:09:33,289 - io.github.bonigarcia.wdm.WebDriverManager -INFO - Using chromedriver 90.0.4430.24 (resolved driver for Chrome 90)
2021-05-19 14:09:33,316 - io.github.bonigarcia.wdm.WebDriverManager -INFO - Exporting webdriver.chrome.driver as C:\Users\INNOTECH_61\.cache\selenium\chromedriver\win32\90.0.4430.24\chromedriver.exe
2021-05-19 14:09:37,634 - nopComemrce -INFO - ******** Providing login details*********
2021-05-19 14:09:38,009 - nopComemrce -INFO - ******** started login*********
2021-05-19 14:09:51,012 - nopComemrce -INFO - ********closing browser********
2021-05-19 14:10:31,214 - io.github.bonigarcia.wdm.WebDriverManager -INFO - Using chromedriver 90.0.4430.24 (resolved driver for Chrome 90)
2021-05-19 14:10:31,245 - io.github.bonigarcia.wdm.WebDriverManager -INFO - Exporting webdriver.chrome.driver as C:\Users\INNOTECH_61\.cache\selenium\chromedriver\win32\90.0.4430.24\chromedriver.exe
2021-05-19 14:10:35,920 - nopComemrce -INFO - ******** Providing login details*********
2021-05-19 14:10:36,255 - nopComemrce -INFO - ******** started login*********
2021-05-19 14:11:17,583 - nopComemrce -INFO - ********closing browser********
2021-05-19 14:12:46,272 - io.github.bonigarcia.wdm.WebDriverManager -INFO - Using chromedriver 90.0.4430.24 (resolved driver for Chrome 90)
2021-05-19 14:12:46,301 - io.github.bonigarcia.wdm.WebDriverManager -INFO - Exporting webdriver.chrome.driver as C:\Users\INNOTECH_61\.cache\selenium\chromedriver\win32\90.0.4430.24\chromedriver.exe
2021-05-19 14:12:50,715 - nopComemrce -INFO - ******** Providing login details*********
2021-05-19 14:12:51,073 - nopComemrce -INFO - ******** started login*********
2021-05-19 14:13:04,026 - nopComemrce -INFO - ********closing browser********
2021-05-19 14:59:41,904 - io.github.bonigarcia.wdm.WebDriverManager -INFO - Using chromedriver 90.0.4430.24 (resolved driver for Chrome 90)
2021-05-19 14:59:41,935 - io.github.bonigarcia.wdm.WebDriverManager -INFO - Exporting webdriver.chrome.driver as C:\Users\INNOTECH_61\.cache\selenium\chromedriver\win32\90.0.4430.24\chromedriver.exe
2021-05-19 14:59:49,833 - nopComemrce -INFO - ******** Providing login details*********
2021-05-19 14:59:50,155 - nopComemrce -INFO - ******** started login*********
2021-05-19 15:00:04,239 - nopComemrce -INFO - ********closing browser********
